%!PS-Adobe-3.0
%%Creator: graphviz version 2.26.3 (20100126.1600)
%%Title: G
%%Pages: (atend)
%%BoundingBox: (atend)
%%EndComments
save
%%BeginProlog
/DotDict 200 dict def
DotDict begin

/setupLatin1 {
mark
/EncodingVector 256 array def
 EncodingVector 0

ISOLatin1Encoding 0 255 getinterval putinterval
EncodingVector 45 /hyphen put

% Set up ISO Latin 1 character encoding
/starnetISO {
        dup dup findfont dup length dict begin
        { 1 index /FID ne { def }{ pop pop } ifelse
        } forall
        /Encoding EncodingVector def
        currentdict end definefont
} def
/Times-Roman starnetISO def
/Times-Italic starnetISO def
/Times-Bold starnetISO def
/Times-BoldItalic starnetISO def
/Helvetica starnetISO def
/Helvetica-Oblique starnetISO def
/Helvetica-Bold starnetISO def
/Helvetica-BoldOblique starnetISO def
/Courier starnetISO def
/Courier-Oblique starnetISO def
/Courier-Bold starnetISO def
/Courier-BoldOblique starnetISO def
cleartomark
} bind def

%%BeginResource: procset graphviz 0 0
/coord-font-family /Times-Roman def
/default-font-family /Times-Roman def
/coordfont coord-font-family findfont 8 scalefont def

/InvScaleFactor 1.0 def
/set_scale {
       dup 1 exch div /InvScaleFactor exch def
       scale
} bind def

% styles
/solid { [] 0 setdash } bind def
/dashed { [9 InvScaleFactor mul dup ] 0 setdash } bind def
/dotted { [1 InvScaleFactor mul 6 InvScaleFactor mul] 0 setdash } bind def
/invis {/fill {newpath} def /stroke {newpath} def /show {pop newpath} def} bind def
/bold { 2 setlinewidth } bind def
/filled { } bind def
/unfilled { } bind def
/rounded { } bind def
/diagonals { } bind def

% hooks for setting color 
/nodecolor { sethsbcolor } bind def
/edgecolor { sethsbcolor } bind def
/graphcolor { sethsbcolor } bind def
/nopcolor {pop pop pop} bind def

/beginpage {	% i j npages
	/npages exch def
	/j exch def
	/i exch def
	/str 10 string def
	npages 1 gt {
		gsave
			coordfont setfont
			0 0 moveto
			(\() show i str cvs show (,) show j str cvs show (\)) show
		grestore
	} if
} bind def

/set_font {
	findfont exch
	scalefont setfont
} def

% draw text fitted to its expected width
/alignedtext {			% width text
	/text exch def
	/width exch def
	gsave
		width 0 gt {
			[] 0 setdash
			text stringwidth pop width exch sub text length div 0 text ashow
		} if
	grestore
} def

/boxprim {				% xcorner ycorner xsize ysize
		4 2 roll
		moveto
		2 copy
		exch 0 rlineto
		0 exch rlineto
		pop neg 0 rlineto
		closepath
} bind def

/ellipse_path {
	/ry exch def
	/rx exch def
	/y exch def
	/x exch def
	matrix currentmatrix
	newpath
	x y translate
	rx ry scale
	0 0 1 0 360 arc
	setmatrix
} bind def

/endpage { showpage } bind def
/showpage { } def

/layercolorseq
	[	% layer color sequence - darkest to lightest
		[0 0 0]
		[.2 .8 .8]
		[.4 .8 .8]
		[.6 .8 .8]
		[.8 .8 .8]
	]
def

/layerlen layercolorseq length def

/setlayer {/maxlayer exch def /curlayer exch def
	layercolorseq curlayer 1 sub layerlen mod get
	aload pop sethsbcolor
	/nodecolor {nopcolor} def
	/edgecolor {nopcolor} def
	/graphcolor {nopcolor} def
} bind def

/onlayer { curlayer ne {invis} if } def

/onlayers {
	/myupper exch def
	/mylower exch def
	curlayer mylower lt
	curlayer myupper gt
	or
	{invis} if
} def

/curlayer 0 def

%%EndResource
%%EndProlog
%%BeginSetup
14 default-font-family set_font
1 setmiterlimit
% /arrowlength 10 def
% /arrowwidth 5 def

% make sure pdfmark is harmless for PS-interpreters other than Distiller
/pdfmark where {pop} {userdict /pdfmark /cleartomark load put} ifelse
% make '<<' and '>>' safe on PS Level 1 devices
/languagelevel where {pop languagelevel}{1} ifelse
2 lt {
    userdict (<<) cvn ([) cvn load put
    userdict (>>) cvn ([) cvn load put
} if

%%EndSetup
setupLatin1
%%Page: 1 1
%%PageBoundingBox: 36 36 408 267
%%PageOrientation: Portrait
0 0 1 beginpage
gsave
36 36 372 231 boxprim clip newpath
1 1 set_scale 0 rotate 40 41 translate
% (0, 0)
gsave
0.33333 0.24314 1 nodecolor
91.91 204.27 38.18 18.38 ellipse_path fill
1 setlinewidth
filled
0.33333 0.24314 1 nodecolor
91.91 204.27 38.18 18.38 ellipse_path stroke
0 0 0 nodecolor
14 /Times-Roman set_font
72.91 200.67 moveto 38 (\(0, 0\)) alignedtext
grestore
% (0, 0)->(0, 0)
gsave
1 setlinewidth
0 0 0 edgecolor
newpath 129.06 208.57 moveto
139.7 208.4 147.91 206.97 147.91 204.27 curveto
147.91 202.54 144.54 201.34 139.32 200.65 curveto
stroke
0 0 0 edgecolor
newpath 139.27 197.13 moveto
129.06 199.97 lineto
138.81 204.12 lineto
closepath fill
1 setlinewidth
solid
0 0 0 edgecolor
newpath 139.27 197.13 moveto
129.06 199.97 lineto
138.81 204.12 lineto
closepath stroke
0 0 0 edgecolor
14 /Times-Roman set_font
147.91 200.67 moveto 16 (\(f\)) alignedtext
grestore
% (0, 0)->(0, 0)
gsave
1 setlinewidth
0 0 0 edgecolor
newpath 116.54 218.55 moveto
140.14 226.19 165.91 221.43 165.91 204.27 curveto
165.91 189.45 146.71 183.88 126.27 187.55 curveto
stroke
0 0 0 edgecolor
newpath 125.39 184.16 moveto
116.54 189.99 lineto
127.09 190.95 lineto
closepath fill
1 setlinewidth
solid
0 0 0 edgecolor
newpath 125.39 184.16 moveto
116.54 189.99 lineto
127.09 190.95 lineto
closepath stroke
0 0 0 edgecolor
14 /Times-Roman set_font
165.91 200.67 moveto 79 (\(<empty>\)) alignedtext
grestore
% (1, 1)
gsave
0.96863 0.24706 1 nodecolor
91.91 112.27 38.18 18.38 ellipse_path fill
1 setlinewidth
filled
0.96863 0.24706 1 nodecolor
91.91 112.27 38.18 18.38 ellipse_path stroke
0 0 0 nodecolor
14 /Times-Roman set_font
72.91 108.67 moveto 38 (\(1, 1\)) alignedtext
grestore
% (0, 0)->(1, 1)
gsave
1 setlinewidth
0 0 0 edgecolor
newpath 55.36 198.68 moveto
36.62 193.75 15.37 184.53 3.91 167.27 curveto
-10.27 145.93 18.47 131.32 46.81 122.56 curveto
stroke
0 0 0 edgecolor
newpath 48.11 125.83 moveto
56.75 119.7 lineto
46.17 119.1 lineto
closepath fill
1 setlinewidth
solid
0 0 0 edgecolor
newpath 48.11 125.83 moveto
56.75 119.7 lineto
46.17 119.1 lineto
closepath stroke
0 0 0 edgecolor
14 /Times-Roman set_font
3.91 154.67 moveto 45 (\(e&&f\)) alignedtext
grestore
% (0, 0)->(1, 1)
gsave
1 setlinewidth
0 0 0 edgecolor
newpath 80.04 186.57 moveto
76.73 180.68 73.59 173.92 71.91 167.27 curveto
69.94 159.51 69.94 157.03 71.91 149.27 curveto
72.77 145.84 74.03 142.38 75.5 139.03 curveto
stroke
0 0 0 edgecolor
newpath 78.68 140.48 moveto
80.04 129.97 lineto
72.43 137.34 lineto
closepath fill
1 setlinewidth
solid
0 0 0 edgecolor
newpath 78.68 140.48 moveto
80.04 129.97 lineto
72.43 137.34 lineto
closepath stroke
0 0 0 edgecolor
14 /Times-Roman set_font
71.91 154.67 moveto 19 (\(e\)) alignedtext
grestore
% (1, 1)->(0, 0)
gsave
1 setlinewidth
0 0 0 edgecolor
newpath 91.91 130.86 moveto
91.91 143.7 91.91 161.02 91.91 175.61 curveto
stroke
0 0 0 edgecolor
newpath 88.41 175.65 moveto
91.91 185.65 lineto
95.41 175.65 lineto
closepath fill
1 setlinewidth
solid
0 0 0 edgecolor
newpath 88.41 175.65 moveto
91.91 185.65 lineto
95.41 175.65 lineto
closepath stroke
0 0 0 edgecolor
14 /Times-Roman set_font
91.91 154.67 moveto 16 (\(f\)) alignedtext
grestore
% (1, 1)->(0, 0)
gsave
1 setlinewidth
0 0 0 edgecolor
newpath 103.77 129.97 moveto
107.08 135.86 110.22 142.62 111.91 149.27 curveto
113.87 157.03 113.87 159.51 111.91 167.27 curveto
111.04 170.7 109.78 174.16 108.32 177.51 curveto
stroke
0 0 0 edgecolor
newpath 105.13 176.06 moveto
103.77 186.57 lineto
111.39 179.2 lineto
closepath fill
1 setlinewidth
solid
0 0 0 edgecolor
newpath 105.13 176.06 moveto
103.77 186.57 lineto
111.39 179.2 lineto
closepath stroke
0 0 0 edgecolor
14 /Times-Roman set_font
112.91 154.67 moveto 79 (\(<empty>\)) alignedtext
grestore
% (1, 1)->(1, 1)
gsave
1 setlinewidth
0 0 0 edgecolor
newpath 125.81 120.89 moveto
137.98 121.07 147.91 118.2 147.91 112.27 curveto
147.91 108.1 143 105.44 135.85 104.3 curveto
stroke
0 0 0 edgecolor
newpath 136.01 100.8 moveto
125.81 103.65 lineto
135.56 107.79 lineto
closepath fill
1 setlinewidth
solid
0 0 0 edgecolor
newpath 136.01 100.8 moveto
125.81 103.65 lineto
135.56 107.79 lineto
closepath stroke
0 0 0 edgecolor
14 /Times-Roman set_font
147.91 108.67 moveto 45 (\(e&&f\)) alignedtext
grestore
% (-1, 2)
gsave
0 1 1 nodecolor
91.91 20.27 41.22 18.38 ellipse_path fill
1 setlinewidth
filled
0 1 1 nodecolor
91.91 20.27 41.22 18.38 ellipse_path stroke
0 0 0 nodecolor
14 /Times-Roman set_font
70.41 16.67 moveto 43 (\(-1, 2\)) alignedtext
grestore
% (1, 1)->(-1, 2)
gsave
1 setlinewidth
0 0 0 edgecolor
newpath 91.91 93.65 moveto
91.91 80.81 91.91 63.49 91.91 48.9 curveto
stroke
0 0 0 edgecolor
newpath 95.41 48.86 moveto
91.91 38.86 lineto
88.41 48.86 lineto
closepath fill
1 setlinewidth
solid
0 0 0 edgecolor
newpath 95.41 48.86 moveto
91.91 38.86 lineto
88.41 48.86 lineto
closepath stroke
0 0 0 edgecolor
14 /Times-Roman set_font
91.91 62.67 moveto 19 (\(e\)) alignedtext
grestore
% (-1, 2)->(-1, 2)
gsave
1 setlinewidth
0 0 0 edgecolor
newpath 121.76 32.98 moveto
161.09 42.74 214.91 38.5 214.91 20.27 curveto
214.91 3.54 169.56 -1.41 131.69 5.44 curveto
stroke
0 0 0 edgecolor
newpath 130.81 2.05 moveto
121.76 7.56 lineto
132.27 8.9 lineto
closepath fill
1 setlinewidth
solid
0 0 0 edgecolor
newpath 130.81 2.05 moveto
121.76 7.56 lineto
132.27 8.9 lineto
closepath stroke
0 0 0 edgecolor
14 /Times-Roman set_font
214.91 16.67 moveto 16 (\(f\)) alignedtext
grestore
% (-1, 2)->(-1, 2)
gsave
1 setlinewidth
0 0 0 edgecolor
newpath 121.57 33.2 moveto
167.29 45.8 232.91 41.49 232.91 20.27 curveto
232.91 .55 176.19 -4.57 131.48 4.93 curveto
stroke
0 0 0 edgecolor
newpath 130.46 1.58 moveto
121.57 7.34 lineto
132.11 8.38 lineto
closepath fill
1 setlinewidth
solid
0 0 0 edgecolor
newpath 130.46 1.58 moveto
121.57 7.34 lineto
132.11 8.38 lineto
closepath stroke
0 0 0 edgecolor
14 /Times-Roman set_font
232.91 16.67 moveto 79 (\(<empty>\)) alignedtext
grestore
% (-1, 2)->(-1, 2)
gsave
1 setlinewidth
0 0 0 edgecolor
newpath 132.72 22.4 moveto
143.11 22.26 150.91 21.55 150.91 20.27 curveto
150.91 19.47 147.86 18.89 143.04 18.54 curveto
stroke
0 0 0 edgecolor
newpath 142.84 15.03 moveto
132.72 18.14 lineto
142.57 22.02 lineto
closepath fill
1 setlinewidth
solid
0 0 0 edgecolor
newpath 142.84 15.03 moveto
132.72 18.14 lineto
142.57 22.02 lineto
closepath stroke
0 0 0 edgecolor
14 /Times-Roman set_font
150.91 16.67 moveto 45 (\(e&&f\)) alignedtext
grestore
% (-1, 2)->(-1, 2)
gsave
1 setlinewidth
0 0 0 edgecolor
newpath 122.36 32.77 moveto
154.78 39.56 195.91 35.4 195.91 20.27 curveto
195.91 6.68 162.71 1.94 132.45 6.04 curveto
stroke
0 0 0 edgecolor
newpath 131.62 2.63 moveto
122.36 7.77 lineto
132.81 9.53 lineto
closepath fill
1 setlinewidth
solid
0 0 0 edgecolor
newpath 131.62 2.63 moveto
122.36 7.77 lineto
132.81 9.53 lineto
closepath stroke
0 0 0 edgecolor
14 /Times-Roman set_font
195.91 16.67 moveto 19 (\(e\)) alignedtext
grestore
endpage
showpage
grestore
%%PageTrailer
%%EndPage: 1
%%Trailer
%%Pages: 1
%%BoundingBox: 36 36 408 267
end
restore
%%EOF
